Building and Customising Statistical Models with Stan and R: An Introduction to Bayesian Inference Worksheet
…
Code

 print(d, n=14)

# A tibble: 900 × 6
   stops   pop past.arrests precinct   eth crime
   <dbl> <dbl>        <dbl>    <dbl> <dbl> <dbl>
 1    75  1720          191        1     1     1
 2    36  1720           57        1     1     2
 3    74  1720          599        1     1     3
 4    17  1720          133        1     1     4
 5    37  1368           62        1     2     1
 6    39  1368           27        1     2     2
 7    23  1368          149        1     2     3
 8     3  1368           57        1     2     4
 9    26 23854          135        1     3     1
10    32 23854           16        1     3     2
11    10 23854          107        1     3     3
12    13 23854          123        1     3     4
13    73  2596          227        2     1     1
14    37  2596           56        2     1     2
# ℹ 886 more rows
…
